Date,Close
1/29/2018,167.960007
1/30/2018,166.970001
1/31/2018,167.429993
2/1/2018,167.779999
2/2/2018,160.5
2/5/2018,156.490005
2/6/2018,163.029999
2/7/2018,159.539993
2/8/2018,155.149994
2/9/2018,156.410004
2/12/2018,162.710007
2/13/2018,164.339996
2/14/2018,167.369995
2/15/2018,172.990005
2/16/2018,172.429993
2/20/2018,171.850006
2/21/2018,171.070007
2/22/2018,172.5
2/23/2018,175.5
2/26/2018,178.970001
2/27/2018,178.389999
